…
3\. Кластеризовать запросы от устройств к точкам доступа по их именам.
Определить время появления устройства в зоне радиовидимости и время
выхода его из нее.

``` r
data_2 %>% filter(!is.na(Probed.ESSIDs)) %>% group_by(Station.MAC, Probed.ESSIDs) %>%  summarise("min_first_time" = min(First.time.seen), "max_last_time" = max(Last.time.seen), Power)
```

    `summarise()` has grouped output by 'Station.MAC'. You can override using the
    `.groups` argument.

    # A tibble: 1,477 × 5
    # Groups:   Station.MAC [1,477]
       Station.MAC       Probed.ESSIDs min_first_time      max_last_time       Power
       <chr>             <chr>         <dttm>              <dttm>              <chr>
     1 00:90:4C:E6:54:54 Redmi         2023-07-28 09:16:59 2023-07-28 10:21:15 " -6…
     2 00:95:69:E7:7C:ED nvripcsuite   2023-07-28 09:13:11 2023-07-28 11:56:13 " -5…
     3 00:95:69:E7:7D:21 nvripcsuite   2023-07-28 09:13:15 2023-07-28 11:56:17 " -3…
     4 00:95:69:E7:7F:35 nvripcsuite   2023-07-28 09:13:11 2023-07-28 11:56:07 " -6…
     5 00:F4:8D:F7:C5:19 Redmi 12      2023-07-28 10:45:04 2023-07-28 11:43:26 " -7…
     6 02:00:00:00:00:00 xt3 w64dtgv5… 2023-07-28 09:54:40 2023-07-28 11:55:36 " -6…
     7 02:06:2B:A5:0C:31 Avenue611     2023-07-28 09:55:12 2023-07-28 09:55:12 " -6…
     8 02:1D:0F:A4:94:74 iPhone (Дима… 2023-07-28 09:57:08 2023-07-28 09:57:08 " -6…
     9 02:32:DC:56:5C:82 Timo Resort   2023-07-28 10:58:23 2023-07-28 10:58:24 " -8…
    10 02:35:E9:C2:44:5F iPhone (Макс… 2023-07-28 10:00:55 2023-07-28 10:00:55 " -8…
    # ℹ 1,467 more rows
…
