…
    # A tibble: 1 × 2
      name        height
      <chr>        <int>
    1 Yarael Poof    264

6\. Найти всех персонажей ниже 170

``` r
starwars %>% filter(height < 170) %>% select(name, height)
```

    # A tibble: 23 × 2
       name                  height
       <chr>                  <int>
     1 C-3PO                    167
     2 R2-D2                     96
     3 Leia Organa              150
     4 Beru Whitesun lars       165
     5 R5-D4                     97
     6 Yoda                      66
     7 Mon Mothma               150
     8 Wicket Systri Warrick     88
     9 Nien Nunb                160
    10 Watto                    137
    # ℹ 13 more rows

7\. Подсчитать ИМТ (индекс массы тела) для всех персонажей. ИМТ
подсчитать по формуле 𝐼 = 𝑚 ℎ2 , где 𝑚 – масса (weight), а ℎ – рост
(height).

``` r
starwars %>% mutate(IMT = mass/((height/100)**2)) %>% select(name, IMT)
```

    # A tibble: 87 × 2
       name                 IMT
       <chr>              <dbl>
     1 Luke Skywalker      26.0
     2 C-3PO               26.9
     3 R2-D2               34.7
     4 Darth Vader         33.3
     5 Leia Organa         21.8
     6 Owen Lars           37.9
     7 Beru Whitesun lars  27.5
     8 R5-D4               34.0
     9 Biggs Darklighter   25.1
    10 Obi-Wan Kenobi      23.2
    # ℹ 77 more rows
…
9\. Найти средний возраст персонажей каждой расы вселенной Звездных
войн.

``` r
starwars %>% group_by(species) %>% summarise (sr_age = mean(birth_year, na.rm = TRUE))
```

    # A tibble: 38 × 2
       species   sr_age
       <chr>      <dbl>
     1 Aleena     NaN  
     2 Besalisk   NaN  
     3 Cerean      92  
     4 Chagrian   NaN  
     5 Clawdite   NaN  
     6 Droid       53.3
     7 Dug        NaN  
     8 Ewok         8  
     9 Geonosian  NaN  
    10 Gungan      52  
    # ℹ 28 more rows
…
    # A tibble: 1 × 2
      eye_color c_count
      <chr>       <int>
    1 brown          21

11\. Подсчитать среднюю длину имени в каждой расе вселенной Звездных
войн.

``` r
starwars %>% group_by(species) %>% summarise (sr_len_name = mean(length(name)))
```

    # A tibble: 38 × 2
       species   sr_len_name
       <chr>           <dbl>
     1 Aleena              1
     2 Besalisk            1
     3 Cerean              1
     4 Chagrian            1
     5 Clawdite            1
     6 Droid               6
     7 Dug                 1
     8 Ewok                1
     9 Geonosian           1
    10 Gungan              3
    # ℹ 28 more rows
…
